id,floor_plan,currency,gross_floor_area,saleable_area,government_rent,management_fee,rates,address,property_status,reminder,user_id,property_type_id,country_id
1,,HKD,200,200,100.00,100.00,100.00,one mid town,f,bankrupt,1,1,95
2,,HKD,0,200,100.00,100.00,100.00,one mid town,f,bankrupt,1,1,95
3,,HKD,200,200,100.00,100.00,100.00,one mid town,f,bankrupt,1,1,95
4,,HKD,0,200,100.00,100.00,100.00,one mid town,f,bankrupt,1,1,95
5,,BND,200,200,100.00,100.00,100.00,on99,f,sfsafd,1,2,1
7,,BMD,1000,100,100.00,100.00,100.00,fdasfadsfa,f,sdfhsdkjahfkja,1,2,1
6,,BND,0,200,100.00,100.00,100.00,on99,f,sfsafd,1,2,1
8,,HKD,20,200,200.00,200.00,200.00,one mid town,f,good tenant,1,1,95
9,,HKD,0,200,200.00,200.00,200.00,one mid town,f,good tenant,1,1,95
10,,HKD,200,200,200.00,200.00,200.00,one mid town,f,good tenant,1,1,95
11,,HKD,0,200,200.00,200.00,200.00,one mid town,f,good tenant,1,1,95
12,,HKD,2,200,200.00,200.00,200.00,one mid town,f,good tenant,1,1,95
13,,HKD,0,200,200.00,200.00,200.00,one mid town,f,good tenant,1,1,95
14,,BND,2000,2000,1000.00,1000.00,1000.00,two mid town,f,bad cops,1,2,5
15,,HKD,0,200,200.00,200.00,200.00,one mid town,f,good tenant,1,1,95
17,,HKD,23,200,200.00,200.00,200.00,one mid town,f,good tenant,1,1,95
18,,HKD,500,200,200.00,200.00,200.00,one mid town,f,good tenant,1,1,95
19,,HKD,500,200,200.00,200.00,200.00,one mid town,f,good tenant,1,1,95
16,,BND,2000,0,1000.00,1000.00,1000.00,two mid town,f,bad cops,1,2,5
21,,BND,2000,0,1000.00,1000.00,1000.00,two mid town,f,bad cops,1,2,5
22,,BND,2000,0,1000.00,1000.00,1000.00,two mid town,f,bad cops,1,2,5
23,,BND,0,1789,1000.00,1000.00,1000.00,two mid town,f,bad cops,1,2,5
24,,BND,1200,1789,1000.00,1000.00,1000.00,two mid town,f,bad cops,1,2,5
20,,HKD,0,200,200.00,200.00,200.00,one mid town,f,good tenant,1,1,95
27,,BMD,2010,3000,1000.00,1000.00,100.00,"add, envir",f,100,1,3,13
28,,BMD,0,3000,1000.00,1000.00,100.00,"add, envir",f,100,1,3,13
26,,HKD,0,3333,200.00,200.00,200.00,one mid town,f,good tenant,1,1,95
29,,HKD,1000,3333,200.00,200.00,200.00,one mid town,f,good tenant,1,1,95
30,,HKD,0,3333,200.00,200.00,200.00,one mid town,f,good tenant,1,1,95
31,,HKD,0,3333,200.00,200.00,200.00,one mid town,f,good tenant,1,1,95
25,,BND,1200,0,1000.00,1000.00,1000.00,two mid town,f,bad cops,1,2,5
34,,BND,49101,0,1000.00,1000.00,1000.00,two mid town,f,bad cops,1,2,5
32,,HKD,300,300,100.00,100.00,100.00,omg,f,100,1,1,14
35,,BND,232,0,1000.00,1000.00,1000.00,two mid town,f,bad cops,1,2,5
36,,BND,0,0,1000.00,1000.00,1000.00,two mid town,f,bad cops,1,2,5
37,,BND,0,234,1000.00,1000.00,1000.00,two mid town,f,bad cops,1,2,5
38,,BND,0,234,1000.00,1000.00,1000.00,two mid town,f,bad cops,1,2,5
39,,BND,0,235,1000.00,1000.00,1000.00,two mid town,f,bad cops,1,2,5
40,,BND,101,235,1000.00,1000.00,1000.00,two mid town,f,bad cops,1,2,5
41,,BND,0,235,1000.00,1000.00,1000.00,two mid town,f,bad cops,1,2,5
33,,HKD,0,4444,200.00,200.00,200.00,one mid town,f,good tenant,1,1,95
43,,HKD,0,34134,200.00,200.00,200.00,one mid town,f,good tenant,1,1,95
44,,HKD,3231,0,200.00,200.00,200.00,one mid town,f,good tenant,1,1,95
46,,"BOB,BOV",2000,1000,1000.00,1000.00,1000.00,"popo, popo",t,1000,1,4,2
47,,BMD,100,100,1000.00,21.00,1.00,omg,f,10,1,2,4
48,,BMD,0,100,1000.00,21.00,1.00,omg,f,10,1,2,4
49,,BMD,11,0,1000.00,21.00,1.00,omg,f,10,1,2,4
50,,BMD,0,1111,1000.00,21.00,1.00,omg,f,10,1,2,4
51,,BMD,0,0,1000.00,21.00,1.00,omg,f,10,1,2,4
53,,BMD,100,0,1000.00,21.00,1.00,omg,f,10,1,2,4
54,,BMD,0,100,1000.00,21.00,1.00,omg,f,10,1,2,4
55,,BMD,100,0,1000.00,21.00,1.00,omg,f,10,1,2,4
52,,"BOB,BOV",1000,1000,1000.00,1000.00,1000.00,3 mid town,f,1000,1,1,4
57,,"BOB,BOV",0,1000,1000.00,1000.00,1000.00,3 mid town,f,1000,1,1,4
58,,"BOB,BOV",455,0,1000.00,1000.00,1000.00,3 mid town,f,1000,1,1,4
59,,"BOB,BOV",0,455,1000.00,1000.00,1000.00,3 mid town,f,1000,1,1,4
61,,BMD,1000,1000,901.00,100.00,100.00,200,f,100,1,1,2
42,,BND,456,0,1000.00,1000.00,1000.00,two mid town,f,bad cops,1,2,5
62,,BMD,0,1000,901.00,100.00,100.00,200,f,100,1,1,2
63,,BMD,1000,0,901.00,100.00,100.00,200,f,100,1,1,2
64,,BMD,0,1000,901.00,100.00,100.00,200,f,100,1,1,2
65,,BMD,1000,1000,901.00,100.00,100.00,200,f,100,1,1,2
66,,BMD,0,1000,901.00,100.00,100.00,200,f,100,1,1,2
67,,BMD,1000,0,901.00,100.00,100.00,200,f,100,1,1,2
68,,BMD,0,1000,901.00,100.00,100.00,200,f,100,1,1,2
69,,BMD,1000,0,901.00,100.00,100.00,200,f,100,1,1,2
70,,BMD,0,1000,901.00,100.00,100.00,200,f,100,1,1,2
71,,BMD,0,1000,901.00,100.00,100.00,200,f,100,1,1,2
72,,BMD,0,1000,901.00,100.00,100.00,200,f,100,1,1,2
73,,BMD,88,1000,901.00,100.00,100.00,200,f,100,1,1,2
74,,BMD,88,1000,901.00,100.00,100.00,200,f,100,1,1,2
75,,BMD,88,1000,901.00,100.00,100.00,200,f,100,1,1,2
76,,BMD,88,1000,901.00,100.00,100.00,200,f,100,1,1,2
77,,BMD,88,1000,901.00,100.00,100.00,200,f,100,1,1,2
45,,HKD,0,0,200.00,200.00,200.00,one mid town,f,good tenant,1,1,95
60,,"BOB,BOV",455,0,1000.00,1000.00,1000.00,3 mid town,f,1000,1,1,4
78,,BMD,88,1000,901.00,100.00,100.00,200,f,100,1,1,2
79,,BMD,88,1000,901.00,100.00,100.00,200,t,100,1,1,2
56,,BMD,0,0,1000.00,21.00,1.00,omg,f,10,1,2,4
80,,BMD,111,111,1000.00,21.00,1.00,omg,f,10,1,2,4
81,,BND,111,111,11.00,11.00,11.00,111,f,111,1,1,95
82,,HKD,3000,3000,30000.00,3000.00,3000.00,4 midtown ,f,hkd,1,1,95
85,,HKD,2000,200,203.00,302.00,201.00,6 mid town,f,3231,1,2,95
86,,HKD,200,200,222.00,222.00,22.00,6 mid town,f,22,1,4,95
87,,HKD,100,100,100.00,100.00,100.00,6 mid town,f,111,1,3,95
84,,HKD,200,200,200.00,2002.00,200.00,5 mid town,f,121,1,2,95
88,,HKD,200,0,200.00,2002.00,200.00,5 mid town,f,121,1,2,95
89,,HKD,1000,2000,2000.00,2000.00,2000.00,5 mid town,f,2,1,3,95
83,,HKD,200,200,200.00,200.00,200.00,4 mid town,f,200,1,3,95
90,,HKD,1000,1000,1333.00,1333.00,1111.00,one mid town,f,111,1,2,95
91,,HKD,111,111,1111.00,111.00,1111.00,2 mid town,f,1111,1,1,95
92,,HKD,23243241,123413241,4314341.00,13241234.00,123.00,one mid town,f,432,1,2,95
93,,HKD,444,0,1234.00,1234.00,1234.00,one mid town,f,1234,1,2,95
94,,HKD,0,0,1234.00,1234.00,1234.00,one mid town,t,1234,1,2,95
95,,BND,131,123,13.00,123.00,123.00,3 3 kk,f,431,1,2,95
96,,BND,131,0,13.00,123.00,123.00,3 3 kk,f,431,1,2,95
97,,BND,0,0,13.00,123.00,123.00,3 3 kk,t,431,1,2,95
98,,"BOB,BOV",99898,8787,134132.00,134.00,1324.00,hgjhg,t,"",1,1,95
99,,HKD,300,300,100.00,100.00,100.00,觀中123,f,冷氣有問題,1,2,95
100,,HKD,3000,3000,100.00,100.00,100.00,觀中123,t,冷氣有問題,1,2,95
101,,MOP,2000,2000,1000.00,1000.00,1000.00,羅神父街泉亨,t,1,1,1,148
